{
    "haskellNixFix": {
        "branch": "armando-1128-libm",
        "description": "Alternative Haskell Infrastructure for Nixpkgs",
        "homepage": "https://input-output-hk.github.io/haskell.nix",
        "owner": "ramirez7",
        "repo": "haskell.nix",
        "rev": "ec0f21f396108313b5d3398109260e104d117efb",
        "sha256": "0l305z9n4s5avcw9yb504a4yzmzp2kk0znj2b4m8af94vh9wh8d7",
        "type": "tarball",
        "url": "https://github.com/ramirez7/haskell.nix/archive/ec0f21f396108313b5d3398109260e104d117efb.tar.gz",
        "url_template": "https://github.com/<owner>/<repo>/archive/<rev>.tar.gz"
    },
    "haskellNixUpstreamBroken": {
        "branch": "master",
        "description": "Alternative Haskell Infrastructure for Nixpkgs",
        "homepage": "https://input-output-hk.github.io/haskell.nix",
        "owner": "input-output-hk",
        "repo": "haskell.nix",
        "rev": "449d80f722a49e6bb893dbc8533e9ec2d4bd7072",
        "sha256": "14psivpmgqgk3jf71d8wbxckv0kf4qr64a87smxvppz7hcz9ky6c",
        "type": "tarball",
        "url": "https://github.com/input-output-hk/haskell.nix/archive/449d80f722a49e6bb893dbc8533e9ec2d4bd7072.tar.gz",
        "url_template": "https://github.com/<owner>/<repo>/archive/<rev>.tar.gz"
    },
    "haskellNixUpstreamFix": {
        "branch": "master",
        "description": "Alternative Haskell Infrastructure for Nixpkgs",
        "homepage": "https://input-output-hk.github.io/haskell.nix",
        "owner": "input-output-hk",
        "repo": "haskell.nix",
        "rev": "def2e0540e1d5d7d6fe47a68e3bdb20fa4a26059",
        "sha256": "0mn80lrm1c1p9ghzm8pl297akm74fck4irz1j66mkxkv1f1cxggr",
        "type": "tarball",
        "url": "https://github.com/input-output-hk/haskell.nix/archive/def2e0540e1d5d7d6fe47a68e3bdb20fa4a26059.tar.gz",
        "url_template": "https://github.com/<owner>/<repo>/archive/<rev>.tar.gz"
    },
    "niv": {
        "branch": "master",
        "description": "Easy dependency management for Nix projects",
        "homepage": "https://github.com/nmattia/niv",
        "owner": "nmattia",
        "repo": "niv",
        "rev": "82e5cd1ad3c387863f0545d7591512e76ab0fc41",
        "sha256": "090l219mzc0gi33i3psgph6s2pwsc8qy4lyrqjdj4qzkvmaj65a7",
        "type": "tarball",
        "url": "https://github.com/nmattia/niv/archive/82e5cd1ad3c387863f0545d7591512e76ab0fc41.tar.gz",
        "url_template": "https://github.com/<owner>/<repo>/archive/<rev>.tar.gz"
    },
    "nixpkgs": {
        "branch": "release-20.03",
        "description": "Nix Packages collection",
        "homepage": "",
        "owner": "NixOS",
        "repo": "nixpkgs",
        "rev": "345ff18c99af958afdbd57f077aae9af4000e864",
        "sha256": "1igwp71cyd8s6j1r80xh895jjfsdry4y67mhr7kmjxc3hbc3axly",
        "type": "tarball",
        "url": "https://github.com/NixOS/nixpkgs/archive/345ff18c99af958afdbd57f077aae9af4000e864.tar.gz",
        "url_template": "https://github.com/<owner>/<repo>/archive/<rev>.tar.gz"
    }
}
